[gd_scene load_steps=6 format=2]

[ext_resource path="res://assets/player/healthbar.pxo" type="Texture" id=1]
[ext_resource path="res://assets/player/manabarframe.pxo" type="Texture" id=2]
[ext_resource path="res://assets/player/healthbarframe.pxo" type="Texture" id=3]
[ext_resource path="res://assets/player/manabar.pxo" type="Texture" id=4]
[ext_resource path="res://scripts/PlayerBars.gdns" type="Script" id=5]

[node name="Bars" type="VBoxContainer"]
margin_left = 5.0
margin_top = 5.0
custom_constants/separation = -1
script = ExtResource( 5 )
__meta__ = {
"_edit_use_anchors_": false
}

[node name="Healthbar" type="TextureProgress" parent="."]
margin_right = 102.0
margin_bottom = 8.0
value = 100.0
texture_over = ExtResource( 3 )
texture_progress = ExtResource( 1 )

[node name="Manabar" type="TextureProgress" parent="."]
margin_top = 7.0
margin_right = 102.0
margin_bottom = 15.0
value = 100.0
texture_over = ExtResource( 2 )
texture_progress = ExtResource( 4 )

[node name="Tween" type="Tween" parent="."]
